﻿LA99ASM998505,CL99779
LA99ASM998504,CL3007012335
LA99ASM998500,CL90981
LA99ASM098501,CL90608
LA99ASM098501,CL90983
LA99ASM098501,CL10070335
LA99ASM098501,CL95070
LA99ASM098501,CL95079
LA99ASM098501,CL95076
LA99ASM098501,CL1675
LA99ASM098501,CL95067
LA99ASM098501,CL10058117
LA99ASM098501,CL95061
LA99ASM098501,CL1300019010370
LA99ASM098501,CL100278
LA99ASM098501,CL101049
LA99ASM098501,CL10063452
LA99ASM098501,CL10067403
LA99ASM098501,CL96018
LA99ASM098501,CL2150955
LA99ASM098501,CL90632
