036BAK6391050 WALNUT|BAK639|036BAK639||Top Task of Unit 036BAK639|23.12.2009|01.01.2099|MOD|N|036BAK639|ELEVATOR|GEARED||01.01.2099|N|TRACTION|036*BA*K639*BAK639||THYSSENKRUPP ELEVATOR CORP    
036BAK6391050 WALNUT|BAK639.01|Labor|BAK639|Labor|23.12.2009|01.01.2099|MOD|N||||||||||THYSSENKRUPP ELEVATOR CORP    
036BAK6391050 WALNUT|BAK639.01.01|Machines|BAK639.01|Machines|23.12.2009|01.01.2099|MOD|Y||||||||||THYSSENKRUPP ELEVATOR CORP    
036BAK6391050 WALNUT|BAK639.01.02|Sheaves|BAK639.01|Sheaves|23.12.2009|01.01.2099|MOD|Y||||||||||THYSSENKRUPP ELEVATOR CORP    
036BAK6391050 WALNUT|BAK639.01.03|Ropes|BAK639.01|Ropes|23.12.2009|01.01.2099|MOD|Y||||||||||THYSSENKRUPP ELEVATOR CORP    
036BAK6391050 WALNUT|BAK639.01.04|Controller|BAK639.01|Controller|23.12.2009|01.01.2099|MOD|Y||||||||||THYSSENKRUPP ELEVATOR CORP    
036BAK6391050 WALNUT|BAK639.01.05|Drive|BAK639.01|Drive|23.12.2009|01.01.2099|MOD|Y||||||||||THYSSENKRUPP ELEVATOR CORP    
036BAK6391050 WALNUT|BAK639.01.06|Load Weighing|BAK639.01|Load Weighing|23.12.2009|01.01.2099|MOD|Y||||||||||THYSSENKRUPP ELEVATOR CORP    
036BAK6391050 WALNUT|BAK639.01.07|Car Door Equipment|BAK639.01|Car Door Equipment|23.12.2009|01.01.2099|MOD|Y||||||||||THYSSENKRUPP ELEVATOR CORP    
036BAK6391050 WALNUT|BAK639.01.08|Cab / Car Sling / Pl|BAK639.01|Cab / Car Sling / Platform / Car Fixtures|23.12.2009|01.01.2099|MOD|Y||||||||||THYSSENKRUPP ELEVATOR CORP    
036BAK6391050 WALNUT|BAK639.01.09|Hall & Lobby Fixture|BAK639.01|Hall & Lobby Fixtures|23.12.2009|01.01.2099|MOD|Y||||||||||THYSSENKRUPP ELEVATOR CORP    
036BAK6391050 WALNUT|BAK639.01.10|Hoistway Equipment|BAK639.01|Hoistway Equipment|23.12.2009|01.01.2099|MOD|Y||||||||||THYSSENKRUPP ELEVATOR CORP    
036BAK6391050 WALNUT|BAK639.01.11|Hoistway Door Equipm|BAK639.01|Hoistway Door Equipment|23.12.2009|01.01.2099|MOD|Y||||||||||THYSSENKRUPP ELEVATOR CORP    
036BAK6391050 WALNUT|BAK639.01.12|Hoistway Wiring|BAK639.01|Hoistway Wiring|23.12.2009|01.01.2099|MOD|Y||||||||||THYSSENKRUPP ELEVATOR CORP    
036BAK6391050 WALNUT|BAK639.01.13|Pit Equipment|BAK639.01|Pit Equipment|23.12.2009|01.01.2099|MOD|Y||||||||||THYSSENKRUPP ELEVATOR CORP    
036BAK6391050 WALNUT|BAK639.01.14|Testing|BAK639.01|Testing|23.12.2009|01.01.2099|MOD|Y||||||||||THYSSENKRUPP ELEVATOR CORP    
036BAK6391050 WALNUT|BAK639.01.15|Miscellaneous|BAK639.01|Miscellaneous|23.12.2009|01.01.2099|MOD|Y||||||||||THYSSENKRUPP ELEVATOR CORP    
036BAK6391050 WALNUT|BAK639.01.16|Operator Time|BAK639.01|Operator Time|23.12.2009|01.01.2099|MOD|Y||||||||||THYSSENKRUPP ELEVATOR CORP    
036BAK6391050 WALNUT|BAK639.02|Material|BAK639|Material|23.12.2009|01.01.2099|MOD|Y||||||||||THYSSENKRUPP ELEVATOR CORP    
036BAK6391050 WALNUT|BAK639.03|Miscellaneous|BAK639|Miscellaneous|23.12.2009|01.01.2099|MOD|Y||||||||||THYSSENKRUPP ELEVATOR CORP    
036BAK6391050 WALNUT|BAK639.04|Total Labor Cost|BAK639|Total Labor Cost|23.12.2009|01.01.2099|MOD|Y||||||||||THYSSENKRUPP ELEVATOR CORP    
036BAK6391050 WALNUT|BAK639.05|NIM|BAK639|NIM|23.12.2009|01.01.2099|MOD|Y||||||||||THYSSENKRUPP ELEVATOR CORP    
