[
  {
    "field name": "MANUFACTURER",
    "column number": 5,
    "mandatory": "Y",
    "maxlen": 30,
    "custom validation": "",
    "post processing": "",
    "formatter": "",
    "ORA_type": "VARCHAR2(30)",
    "Primary": "N",
    "isHidden": "N",
    "isLocked": "N",
    "constant": "",
    "LOV": "",
    "FK": "",
    "OutputValue": "Y",
    "OutputPos": 1
  },
  {
    "field name": "DESCRIPTION",
    "column number": 6,
    "mandatory": "N",
    "maxlen": 240,
    "custom validation": "",
    "post processing": "",
    "formatter": "",
    "ORA_type": "VARCHAR2(240)",
    "Primary": "N",
    "isHidden": "N",
    "isLocked": "N",
    "constant": "",
    "LOV": "",
    "FK": "",
    "OutputValue": "Y",
    "OutputPos": 2
  },
  {
    "field name": "PART_NUMBER",
    "column number": 7,
    "mandatory": "Y",
    "maxlen": 30,
    "custom validation": "",
    "post processing": "",
    "formatter": "",
    "ORA_type": "VARCHAR2(30)",
    "Primary": "N",
    "isHidden": "N",
    "isLocked": "N",
    "constant": "",
    "LOV": "",
    "FK": "",
    "OutputValue": "Y",
    "OutputPos": 3
  },
  {
    "field name": "ORIG_ITEM_NUMBER",
    "column number": 8,
    "mandatory": "Y",
    "maxlen": 16,
    "custom validation": "",
    "post processing": "",
    "formatter": "",
    "ORA_type": "VARCHAR2(16)",
    "Primary": "Y",
    "isHidden": "N",
    "isLocked": "Y",
    "constant": "",
    "LOV": "",
    "FK": "STG_ITEM_HEADER.ORIG_ITEM_NUMBER",
    "OutputValue": "N",
    "OutputPos": ""
  },
  {
    "field name": "ITEM_NUMBER",
    "column number": 9,
    "mandatory": "Y",
    "maxlen": 16,
    "custom validation": "Commons.CustomCheckItemMFGPartNum",
    "post processing": "",
    "formatter": "",
    "ORA_type": "VARCHAR2(16)",
    "Primary": "N",
    "isHidden": "N",
    "isLocked": "N",
    "constant": "",
    "LOV": "",
    "FK": "",
    "OutputValue": "Y",
    "OutputPos": 4
  },
  {
    "field name": "ORG_NAME",
    "column number": 10,
    "mandatory": "Y",
    "maxlen": 60,
    "custom validation": "",
    "post processing": "",
    "formatter": "",
    "ORA_type": "VARCHAR2 (60)",
    "Primary": "N",
    "isHidden": "Y",
    "isLocked": "N",
    "constant": "THYSSENKRUPP ELEVADORES S.A. (PANAMA)",
    "LOV": "",
    "FK": "",
    "OutputValue": "Y",
    "OutputPos": 5
  }
]