[
  {
    "Source Field Name": "PO Number",
    "Destination Name": "PO_NUMBER",
    "Destination Type": "VARCHAR2(20)",
    "Mandatory": "Y",
    "Sample Data": 12345,
    "Comments": "PO Number from SIGLA",
    "Destination Column on EBS tables": "PO_HEADERS_ALL.SEGMENT1"
  },
  {
    "Source Field Name": "PO Type",
    "Destination Name": "PO_TYPE",
    "Destination Type": "VARCHAR2(25)",
    "Mandatory": "Y",
    "Sample Data": "STANDARD",
    "Comments": "Only STANDARD PO Type will be migrated",
    "Destination Column on EBS tables": "PO_HEADERS_ALL.TYPE_LOOKUP_CODE"
  },
  {
    "Source Field Name": "Vendor Name",
    "Destination Name": "VENDOR_NAME",
    "Destination Type": "VARCHAR2(240)",
    "Mandatory": "Y",
    "Sample Data": "ATLANT CORP",
    "Comments": "Vendor Name from SIGLA, must have been already loaded by Vendors IDL",
    "Destination Column on EBS tables": "PO_HEADERS_ALL.VENDOR_ID"
  },
  {
    "Source Field Name": "Vendor Site Code",
    "Destination Name": "VENDOR_SITE_CODE",
    "Destination Type": "VARCHAR2(15)",
    "Mandatory": "Y",
    "Sample Data": "ATL_CORP_01",
    "Comments": "Vendor Site Code from SIGLA, must have been already loaded by Vendors IDL",
    "Destination Column on EBS tables": "PO_HEADERS_ALL.VENDOR_SITE_ID"
  },
  {
    "Source Field Name": "Order Date",
    "Destination Name": "ORDER_DATE",
    "Destination Type": "DATE",
    "Mandatory": "Y",
    "Sample Data": "01-05-2018",
    "Comments": "Creation Date of PO from the legacy ststem in DD-MM-YYYY format",
    "Destination Column on EBS tables": "PO_HEADERS_ALL.CREATION_DATE"
  },
  {
    "Source Field Name": "PO Description",
    "Destination Name": "COMMENTS",
    "Destination Type": "VARCHAR2 (240)",
    "Mandatory": "Y",
    "Sample Data": "TEST FOR PO",
    "Comments": "Free text for a description of PO (240 digits)",
    "Destination Column on EBS tables": "PO_HEADERS_ALL.COMMENTS"
  },
  {
    "Source Field Name": "Payment Terms",
    "Destination Name": "PAYMENT_TERMS",
    "Destination Type": "VARCHAR2(240)",
    "Mandatory": "Y",
    "Sample Data": "NET30",
    "Comments": "Payment Terms for the PO\nNeed to provide Oracle List and Cross Reference",
    "Destination Column on EBS tables": "PO_HEADERS_ALL.TERMS_ID"
  },
  {
    "Source Field Name": "Buyer Employee Number",
    "Destination Name": "AGENT_EMPLOYEE_NUMBER",
    "Destination Type": "VARCHAR2(30)",
    "Mandatory": "Y",
    "Sample Data": "LA1234",
    "Comments": "Employee Number of the Buyer",
    "Destination Column on EBS tables": "PO_HEADERS_ALL.AGENT_ID"
  },
  {
    "Source Field Name": "Note to Vendor",
    "Destination Name": "NOTE_TO_VENDOR",
    "Destination Type": "VARCHAR2(480)",
    "Mandatory": "Y",
    "Sample Data": "NOTE TEST FOR SUPPLIER",
    "Comments": "Free Text as Note to Vendor",
    "Destination Column on EBS tables": "PO_HEADERS_ALL.NOTE_TO_VENDOR"
  },
  {
    "Source Field Name": "Ship To Location",
    "Destination Name": "SHIP_TO_LOCATION",
    "Destination Type": "VARCHAR2(60)",
    "Mandatory": "Y",
    "Sample Data": "PA - CIUDAD DE PANAMA",
    "Comments": "Ship To Location for the PO\nThe list of values need to be provided by Func. Team",
    "Destination Column on EBS tables": "PO_HEADERS_ALL.SHIP_TO_LOCATION_ID"
  },
  {
    "Source Field Name": "Bill To Location",
    "Destination Name": "BILL_TO_LOCATION",
    "Destination Type": "VARCHAR2(60)",
    "Mandatory": "Y",
    "Sample Data": "PA - CIUDAD DE PANAMA",
    "Comments": "Bill To Location for the PO (Same as Ship To)\nThe list of values need to be provided by Func. Team",
    "Destination Column on EBS tables": "PO_HEADERS_ALL.BILL_TO_LOCATION_ID"
  },
  {
    "Source Field Name": "Currency",
    "Destination Name": "CURRENCY_CODE",
    "Destination Type": "VARCHAR2(3)",
    "Mandatory": "Y",
    "Sample Data": "USD",
    "Comments": "Currency Code of the PO",
    "Destination Column on EBS tables": "PO_HEADERS_ALL.CURRENCY_CODE"
  },
  {
    "Source Field Name": "Exchange Rate",
    "Destination Name": "RATE",
    "Destination Type": "NUMBER",
    "Mandatory": "Y*",
    "Sample Data": 0.8,
    "Comments": "Exchange rate  in case PO Currency is different from functional currency otherwise leave it blank\nNote: Exchange rate type is always 'User', which will be defaulted by IDL, not from data extract",
    "Destination Column on EBS tables": "PO_HEADERS_ALL.RATE"
  },
  {
    "Source Field Name": "Approval Status",
    "Destination Name": "APPROVAL_STATUS",
    "Destination Type": "VARCHAR2(30)",
    "Mandatory": "Y",
    "Sample Data": "APPROVED",
    "Comments": "PO's approval status: APPROVED",
    "Destination Column on EBS tables": "PO_HEADERS_ALL.AUTHORIZATION_STATUS"
  },
  {
    "Source Field Name": "Approved Date",
    "Destination Name": "APPROVED_DATE",
    "Destination Type": "DATE",
    "Mandatory": "Y*",
    "Sample Data": "10-05-2018",
    "Comments": "Approval Date of PO from legacy system in DD-MM-YYYY format, in case PO is Approved\nIf Sigla has approved date, use it, if not PO Creation Date",
    "Destination Column on EBS tables": "PO_HEADERS_ALL.APPROVED_DATE"
  },
  {
    "Source Field Name": "Operating Unit Name",
    "Destination Name": "ORG_NAME",
    "Destination Type": "VARCHAR2(150)",
    "Mandatory": "Y",
    "Sample Data": "PA - THYSSENKRUPP ELEVADORES S.A.",
    "Comments": "Operating Unit Name",
    "Destination Column on EBS tables": "PO_HEADERS_ALL.ORG_ID"
  },
  {
    "Source Field Name": "Source (PE)",
    "Destination Name": "PE_EXT_ATTRIBUTE1",
    "Destination Type": "VARCHAR2(30)",
    "Mandatory": "Y*",
    "Sample Data": "18 : Importation\n02 : National",
    "Comments": "Required by Peru Localization only",
    "Destination Column on EBS tables": "CLL_F257_PO_HEADERS_EXT.ATTRIBUTE1"
  }
]