[
  {
    "field name": "VENDOR_NUMBER",
    "column number": 5,
    "mandatory": "Y",
    "maxlen": 30,
    "custom validation": "",
    "post processing": "",
    "formatter": "",
    "ORA_type": "VARCHAR2(30)",
    "Primary": "N",
    "isHidden": "N",
    "isLocked": "N",
    "constant": "",
    "LOV": "",
    "FK": "STG_VENDOR_HEADER.SEGMENT1",
    "IsOutputValue": "Y",
    "OutputPos": 1
  },
  {
    "field name": "VENDOR_SITE_CODE",
    "column number": 6,
    "mandatory": "Y",
    "maxlen": 15,
    "custom validation": "",
    "post processing": "",
    "formatter": "",
    "ORA_type": "VARCHAR2(15)",
    "Primary": "Y",
    "isHidden": "N",
    "isLocked": "N",
    "constant": "",
    "LOV": "",
    "FK": "",
    "IsOutputValue": "Y",
    "OutputPos": 2
  },
  {
    "field name": "VENDOR_SITE_CODE_ALT",
    "column number": 7,
    "mandatory": "N",
    "maxlen": 320,
    "custom validation": "",
    "post processing": "",
    "formatter": "",
    "ORA_type": "VARCHAR2(320)",
    "Primary": "N",
    "isHidden": "N",
    "isLocked": "N",
    "constant": "",
    "LOV": "",
    "FK": "",
    "IsOutputValue": "Y",
    "OutputPos": 3
  },
  {
    "field name": "ADDRESS_LINE1",
    "column number": 8,
    "mandatory": "Y",
    "maxlen": 150,
    "custom validation": "",
    "post processing": "",
    "formatter": "",
    "ORA_type": "VARCHAR2(150)",
    "Primary": "N",
    "isHidden": "N",
    "isLocked": "N",
    "constant": "",
    "LOV": "",
    "FK": "",
    "IsOutputValue": "Y",
    "OutputPos": 4
  },
  {
    "field name": "ADDRESS_LINE2",
    "column number": 9,
    "mandatory": "N",
    "maxlen": 150,
    "custom validation": "",
    "post processing": "",
    "formatter": "",
    "ORA_type": "VARCHAR2(150)",
    "Primary": "N",
    "isHidden": "N",
    "isLocked": "N",
    "constant": "",
    "LOV": "",
    "FK": "",
    "IsOutputValue": "Y",
    "OutputPos": 5
  },
  {
    "field name": "ADDRESS_LINE3",
    "column number": 10,
    "mandatory": "N",
    "maxlen": 240,
    "custom validation": "",
    "post processing": "",
    "formatter": "",
    "ORA_type": "VARCHAR2(240)",
    "Primary": "N",
    "isHidden": "N",
    "isLocked": "N",
    "constant": "",
    "LOV": "",
    "FK": "",
    "IsOutputValue": "Y",
    "OutputPos": 6
  },
  {
    "field name": "ADDRESS_LINE4",
    "column number": 11,
    "mandatory": "N",
    "maxlen": 240,
    "custom validation": "",
    "post processing": "",
    "formatter": "",
    "ORA_type": "VARCHAR2(240)",
    "Primary": "N",
    "isHidden": "N",
    "isLocked": "N",
    "constant": "",
    "LOV": "",
    "FK": "",
    "IsOutputValue": "Y",
    "OutputPos": 7
  },
  {
    "field name": "ADDRESS_LINE_ALT",
    "column number": 12,
    "mandatory": "N",
    "maxlen": 560,
    "custom validation": "",
    "post processing": "",
    "formatter": "",
    "ORA_type": "VARCHAR2(560)",
    "Primary": "N",
    "isHidden": "N",
    "isLocked": "N",
    "constant": "",
    "LOV": "",
    "FK": "",
    "IsOutputValue": "Y",
    "OutputPos": 8
  },
  {
    "field name": "CITY",
    "column number": 13,
    "mandatory": "Y",
    "maxlen": 25,
    "custom validation": "",
    "post processing": "",
    "formatter": "",
    "ORA_type": "VARCHAR2(25)",
    "Primary": "N",
    "isHidden": "N",
    "isLocked": "N",
    "constant": "",
    "LOV": "",
    "FK": "",
    "IsOutputValue": "Y",
    "OutputPos": 9
  },
  {
    "field name": "COUNTY",
    "column number": 14,
    "mandatory": "N",
    "maxlen": 150,
    "custom validation": "",
    "post processing": "",
    "formatter": "",
    "ORA_type": "VARCHAR2(150)",
    "Primary": "N",
    "isHidden": "N",
    "isLocked": "N",
    "constant": "",
    "LOV": "",
    "FK": "",
    "IsOutputValue": "Y",
    "OutputPos": 10
  },
  {
    "field name": "STATE",
    "column number": 15,
    "mandatory": "Y",
    "maxlen": 50,
    "custom validation": "",
    "post processing": "",
    "formatter": "",
    "ORA_type": "VARCHAR2(50)",
    "Primary": "N",
    "isHidden": "N",
    "isLocked": "N",
    "constant": "",
    "LOV": "",
    "FK": "",
    "IsOutputValue": "Y",
    "OutputPos": 11
  },
  {
    "field name": "PROVINCE",
    "column number": 16,
    "mandatory": "N",
    "maxlen": 150,
    "custom validation": "Commons.EnforceORAGeographyCodesForVendors",
    "post processing": "",
    "formatter": "",
    "ORA_type": "VARCHAR2(150)",
    "Primary": "N",
    "isHidden": "N",
    "isLocked": "N",
    "constant": "",
    "LOV": "",
    "FK": "",
    "IsOutputValue": "Y",
    "OutputPos": 12
  },
  {
    "field name": "ZIP",
    "column number": 17,
    "mandatory": "N",
    "maxlen": 20,
    "custom validation": "",
    "post processing": "",
    "formatter": "",
    "ORA_type": "VARCHAR2(20)",
    "Primary": "N",
    "isHidden": "N",
    "isLocked": "N",
    "constant": "",
    "LOV": "",
    "FK": "",
    "IsOutputValue": "Y",
    "OutputPos": 13
  },
  {
    "field name": "COUNTRY",
    "column number": 18,
    "mandatory": "Y",
    "maxlen": 25,
    "custom validation": "",
    "post processing": "",
    "formatter": "",
    "ORA_type": "VARCHAR2(25)",
    "Primary": "N",
    "isHidden": "N",
    "isLocked": "N",
    "constant": "",
    "LOV": "",
    "FK": "",
    "IsOutputValue": "Y",
    "OutputPos": 14
  },
  {
    "field name": "AREA_CODE",
    "column number": 19,
    "mandatory": "N",
    "maxlen": 15,
    "custom validation": "",
    "post processing": "",
    "formatter": "",
    "ORA_type": "VARCHAR2(15)",
    "Primary": "N",
    "isHidden": "N",
    "isLocked": "N",
    "constant": "",
    "LOV": "",
    "FK": "",
    "IsOutputValue": "Y",
    "OutputPos": 15
  },
  {
    "field name": "PHONE",
    "column number": 20,
    "mandatory": "N",
    "maxlen": 15,
    "custom validation": "",
    "post processing": "",
    "formatter": "",
    "ORA_type": "VARCHAR2(15)",
    "Primary": "N",
    "isHidden": "N",
    "isLocked": "N",
    "constant": "",
    "LOV": "",
    "FK": "",
    "IsOutputValue": "Y",
    "OutputPos": 16
  },
  {
    "field name": "FAX_AREA_CODE",
    "column number": 21,
    "mandatory": "N",
    "maxlen": 15,
    "custom validation": "",
    "post processing": "",
    "formatter": "",
    "ORA_type": "VARCHAR2(15)",
    "Primary": "N",
    "isHidden": "N",
    "isLocked": "N",
    "constant": "",
    "LOV": "",
    "FK": "",
    "IsOutputValue": "Y",
    "OutputPos": 17
  },
  {
    "field name": "FAX",
    "column number": 22,
    "mandatory": "N",
    "maxlen": 15,
    "custom validation": "",
    "post processing": "",
    "formatter": "",
    "ORA_type": "VARCHAR2(15)",
    "Primary": "N",
    "isHidden": "N",
    "isLocked": "N",
    "constant": "",
    "LOV": "",
    "FK": "",
    "IsOutputValue": "Y",
    "OutputPos": 18
  },
  {
    "field name": "PAYMENT_METHOD_LOOKUP_CODE",
    "column number": 23,
    "mandatory": "N",
    "maxlen": 25,
    "custom validation": "",
    "post processing": "",
    "formatter": "",
    "ORA_type": "VARCHAR2(25)",
    "Primary": "N",
    "isHidden": "N",
    "isLocked": "N",
    "constant": "",
    "LOV": "",
    "FK": "",
    "IsOutputValue": "Y",
    "OutputPos": 19
  },
  {
    "field name": "VAT_CODE",
    "column number": 24,
    "mandatory": "N",
    "maxlen": 20,
    "custom validation": "",
    "post processing": "",
    "formatter": "",
    "ORA_type": "VARCHAR2(20)",
    "Primary": "N",
    "isHidden": "N",
    "isLocked": "N",
    "constant": "",
    "LOV": "",
    "FK": "",
    "IsOutputValue": "Y",
    "OutputPos": 20
  },
  {
    "field name": "ACCTS_PAY_ACCOUNT",
    "column number": 25,
    "mandatory": "N",
    "maxlen": 150,
    "custom validation": "",
    "post processing": "",
    "formatter": "",
    "ORA_type": "VARCHAR2(150)",
    "Primary": "N",
    "isHidden": "N",
    "isLocked": "N",
    "constant": "",
    "LOV": "",
    "FK": "",
    "IsOutputValue": "Y",
    "OutputPos": 21
  },
  {
    "field name": "PREPAY_ACCOUNT",
    "column number": 26,
    "mandatory": "N",
    "maxlen": 150,
    "custom validation": "",
    "post processing": "",
    "formatter": "",
    "ORA_type": "VARCHAR2(150)",
    "Primary": "N",
    "isHidden": "N",
    "isLocked": "N",
    "constant": "",
    "LOV": "",
    "FK": "",
    "IsOutputValue": "Y",
    "OutputPos": 22
  },
  {
    "field name": "PAY_GROUP_LOOKUP_CODE",
    "column number": 27,
    "mandatory": "N",
    "maxlen": 25,
    "custom validation": "",
    "post processing": "",
    "formatter": "",
    "ORA_type": "VARCHAR2(25)",
    "Primary": "N",
    "isHidden": "N",
    "isLocked": "N",
    "constant": "",
    "LOV": "",
    "FK": "",
    "IsOutputValue": "Y",
    "OutputPos": 23
  },
  {
    "field name": "INVOICE_CURRENCY_CODE",
    "column number": 28,
    "mandatory": "N",
    "maxlen": 15,
    "custom validation": "",
    "post processing": "",
    "formatter": "",
    "ORA_type": "VARCHAR2(15)",
    "Primary": "N",
    "isHidden": "N",
    "isLocked": "N",
    "constant": "",
    "LOV": "",
    "FK": "",
    "IsOutputValue": "Y",
    "OutputPos": 24
  },
  {
    "field name": "LANGUAGE",
    "column number": 29,
    "mandatory": "N",
    "maxlen": 10,
    "custom validation": "",
    "post processing": "",
    "formatter": "",
    "ORA_type": "VARCHAR2(10)",
    "Primary": "N",
    "isHidden": "N",
    "isLocked": "N",
    "constant": "",
    "LOV": "",
    "FK": "",
    "IsOutputValue": "Y",
    "OutputPos": 25
  },
  {
    "field name": "TERMS_NAME",
    "column number": 30,
    "mandatory": "N",
    "maxlen": 200,
    "custom validation": "",
    "post processing": "",
    "formatter": "",
    "ORA_type": "VARCHAR2(200)",
    "Primary": "N",
    "isHidden": "N",
    "isLocked": "N",
    "constant": "",
    "LOV": "",
    "FK": "",
    "IsOutputValue": "Y",
    "OutputPos": 26
  },
  {
    "field name": "EMAIL_ADDRESS",
    "column number": 31,
    "mandatory": "N",
    "maxlen": 150,
    "custom validation": "",
    "post processing": "",
    "formatter": "",
    "ORA_type": "VARCHAR2(150)",
    "Primary": "N",
    "isHidden": "N",
    "isLocked": "N",
    "constant": "",
    "LOV": "",
    "FK": "",
    "IsOutputValue": "Y",
    "OutputPos": 27
  },
  {
    "field name": "PURCHASING_SITE_FLAG",
    "column number": 32,
    "mandatory": "N",
    "maxlen": 1,
    "custom validation": "",
    "post processing": "",
    "formatter": "",
    "ORA_type": "VARCHAR2(1)",
    "Primary": "N",
    "isHidden": "N",
    "isLocked": "N",
    "constant": "",
    "LOV": "",
    "FK": "",
    "IsOutputValue": "Y",
    "OutputPos": 28
  },
  {
    "field name": "PAY_SITE_FLAG",
    "column number": 33,
    "mandatory": "N",
    "maxlen": 1,
    "custom validation": "",
    "post processing": "",
    "formatter": "",
    "ORA_type": "VARCHAR2(1)",
    "Primary": "N",
    "isHidden": "N",
    "isLocked": "N",
    "constant": "",
    "LOV": "",
    "FK": "",
    "IsOutputValue": "Y",
    "OutputPos": 29
  },
  {
    "field name": "VAT_REGISTRATION_NUM",
    "column number": 34,
    "mandatory": "N",
    "maxlen": 20,
    "custom validation": "",
    "post processing": "",
    "formatter": "",
    "ORA_type": "VARCHAR2(20)",
    "Primary": "N",
    "isHidden": "N",
    "isLocked": "N",
    "constant": "",
    "LOV": "",
    "FK": "",
    "IsOutputValue": "Y",
    "OutputPos": 30
  },
  {
    "field name": "SHIP_TO_LOCATION_CODE",
    "column number": 35,
    "mandatory": "N",
    "maxlen": 60,
    "custom validation": "",
    "post processing": "",
    "formatter": "",
    "ORA_type": "VARCHAR2 (60)",
    "Primary": "N",
    "isHidden": "N",
    "isLocked": "N",
    "constant": "",
    "LOV": "",
    "FK": "",
    "IsOutputValue": "Y",
    "OutputPos": 31
  },
  {
    "field name": "PRIMARY_PAY_SITE_FLAG",
    "column number": 36,
    "mandatory": "N",
    "maxlen": 1,
    "custom validation": "",
    "post processing": "",
    "formatter": "",
    "ORA_type": "VARCHAR2(1)",
    "Primary": "N",
    "isHidden": "N",
    "isLocked": "N",
    "constant": "",
    "LOV": "",
    "FK": "",
    "IsOutputValue": "Y",
    "OutputPos": 32
  },
  {
    "field name": "GAPLESS_INV_NUM_FLAG",
    "column number": 37,
    "mandatory": "N",
    "maxlen": 1,
    "custom validation": "",
    "post processing": "",
    "formatter": "",
    "ORA_type": "VARCHAR2(1)",
    "Primary": "N",
    "isHidden": "N",
    "isLocked": "N",
    "constant": "",
    "LOV": "",
    "FK": "",
    "IsOutputValue": "Y",
    "OutputPos": 33
  },
  {
    "field name": "OFFSET_TAX_FLAG",
    "column number": 38,
    "mandatory": "N",
    "maxlen": 1,
    "custom validation": "",
    "post processing": "",
    "formatter": "",
    "ORA_type": "VARCHAR2(1)",
    "Primary": "N",
    "isHidden": "N",
    "isLocked": "N",
    "constant": "",
    "LOV": "",
    "FK": "",
    "IsOutputValue": "Y",
    "OutputPos": 34
  },
  {
    "field name": "ALWAYS_TAKE_DISC_FLAG",
    "column number": 39,
    "mandatory": "N",
    "maxlen": 1,
    "custom validation": "",
    "post processing": "",
    "formatter": "",
    "ORA_type": "VARCHAR2(1)",
    "Primary": "N",
    "isHidden": "N",
    "isLocked": "N",
    "constant": "",
    "LOV": "",
    "FK": "",
    "IsOutputValue": "Y",
    "OutputPos": 35
  },
  {
    "field name": "EXCLUDE_FREIGHT_FROM_DISCOUNT",
    "column number": 40,
    "mandatory": "N",
    "maxlen": 1,
    "custom validation": "",
    "post processing": "",
    "formatter": "",
    "ORA_type": "VARCHAR2(1)",
    "Primary": "N",
    "isHidden": "N",
    "isLocked": "N",
    "constant": "",
    "LOV": "",
    "FK": "",
    "IsOutputValue": "Y",
    "OutputPos": 36
  },
  {
    "field name": "GLOBAL_ATTRIBUTE17",
    "column number": 41,
    "mandatory": "N",
    "maxlen": 1,
    "custom validation": "",
    "post processing": "",
    "formatter": "",
    "ORA_type": "VARCHAR2(1)",
    "Primary": "N",
    "isHidden": "N",
    "isLocked": "N",
    "constant": "",
    "LOV": "",
    "FK": "",
    "IsOutputValue": "Y",
    "OutputPos": 37
  },
  {
    "field name": "GLOBAL_ATTRIBUTE18",
    "column number": 42,
    "mandatory": "N",
    "maxlen": 1,
    "custom validation": "",
    "post processing": "",
    "formatter": "",
    "ORA_type": "VARCHAR2(1)",
    "Primary": "N",
    "isHidden": "N",
    "isLocked": "N",
    "constant": "",
    "LOV": "",
    "FK": "",
    "IsOutputValue": "Y",
    "OutputPos": 38
  },
  {
    "field name": "GLOBAL_ATTRIBUTE19",
    "column number": 43,
    "mandatory": "N",
    "maxlen": "",
    "custom validation": "",
    "post processing": "",
    "formatter": "",
    "ORA_type": "NUMBER",
    "Primary": "N",
    "isHidden": "N",
    "isLocked": "N",
    "constant": "",
    "LOV": "",
    "FK": "",
    "IsOutputValue": "Y",
    "OutputPos": 39
  },
  {
    "field name": "GLOBAL_ATTRIBUTE20",
    "column number": 44,
    "mandatory": "N",
    "maxlen": "",
    "custom validation": "",
    "post processing": "",
    "formatter": "",
    "ORA_type": "DATE",
    "Primary": "N",
    "isHidden": "N",
    "isLocked": "N",
    "constant": "",
    "LOV": "",
    "FK": "",
    "IsOutputValue": "Y",
    "OutputPos": 40
  },
  {
    "field name": "ATTRIBUTE_CATEGORY",
    "column number": 45,
    "mandatory": "N",
    "maxlen": 30,
    "custom validation": "",
    "post processing": "",
    "formatter": "",
    "ORA_type": "VARCHAR2(30)",
    "Primary": "N",
    "isHidden": "N",
    "isLocked": "N",
    "constant": "",
    "LOV": "",
    "FK": "",
    "IsOutputValue": "Y",
    "OutputPos": 41
  },
  {
    "field name": "ATTRIBUTE1",
    "column number": 46,
    "mandatory": "N",
    "maxlen": 150,
    "custom validation": "",
    "post processing": "",
    "formatter": "",
    "ORA_type": "VARCHAR2(150)",
    "Primary": "N",
    "isHidden": "N",
    "isLocked": "N",
    "constant": "",
    "LOV": "",
    "FK": "",
    "IsOutputValue": "Y",
    "OutputPos": 42
  },
  {
    "field name": "ATTRIBUTE2",
    "column number": 47,
    "mandatory": "N",
    "maxlen": 150,
    "custom validation": "",
    "post processing": "",
    "formatter": "",
    "ORA_type": "VARCHAR2(150)",
    "Primary": "N",
    "isHidden": "N",
    "isLocked": "N",
    "constant": "",
    "LOV": "",
    "FK": "",
    "IsOutputValue": "Y",
    "OutputPos": 43
  },
  {
    "field name": "ATTRIBUTE3",
    "column number": 48,
    "mandatory": "N",
    "maxlen": 150,
    "custom validation": "",
    "post processing": "",
    "formatter": "",
    "ORA_type": "VARCHAR2(150)",
    "Primary": "N",
    "isHidden": "N",
    "isLocked": "N",
    "constant": "",
    "LOV": "",
    "FK": "",
    "IsOutputValue": "Y",
    "OutputPos": 44
  },
  {
    "field name": "ATTRIBUTE4",
    "column number": 49,
    "mandatory": "N",
    "maxlen": 150,
    "custom validation": "",
    "post processing": "",
    "formatter": "",
    "ORA_type": "VARCHAR2(150)",
    "Primary": "N",
    "isHidden": "N",
    "isLocked": "N",
    "constant": "",
    "LOV": "",
    "FK": "",
    "IsOutputValue": "Y",
    "OutputPos": 45
  },
  {
    "field name": "ATTRIBUTE5",
    "column number": 50,
    "mandatory": "N",
    "maxlen": 150,
    "custom validation": "",
    "post processing": "",
    "formatter": "",
    "ORA_type": "VARCHAR2(150)",
    "Primary": "N",
    "isHidden": "N",
    "isLocked": "N",
    "constant": "",
    "LOV": "",
    "FK": "",
    "IsOutputValue": "Y",
    "OutputPos": 46
  },
  {
    "field name": "ATTRIBUTE6",
    "column number": 51,
    "mandatory": "N",
    "maxlen": 150,
    "custom validation": "",
    "post processing": "",
    "formatter": "",
    "ORA_type": "VARCHAR2(150)",
    "Primary": "N",
    "isHidden": "N",
    "isLocked": "N",
    "constant": "",
    "LOV": "",
    "FK": "",
    "IsOutputValue": "Y",
    "OutputPos": 47
  },
  {
    "field name": "ATTRIBUTE7",
    "column number": 52,
    "mandatory": "N",
    "maxlen": 150,
    "custom validation": "",
    "post processing": "",
    "formatter": "",
    "ORA_type": "VARCHAR2(150)",
    "Primary": "N",
    "isHidden": "N",
    "isLocked": "N",
    "constant": "",
    "LOV": "",
    "FK": "",
    "IsOutputValue": "Y",
    "OutputPos": 48
  },
  {
    "field name": "ATTRIBUTE8",
    "column number": 53,
    "mandatory": "N",
    "maxlen": 150,
    "custom validation": "",
    "post processing": "",
    "formatter": "",
    "ORA_type": "VARCHAR2(150)",
    "Primary": "N",
    "isHidden": "N",
    "isLocked": "N",
    "constant": "",
    "LOV": "",
    "FK": "",
    "IsOutputValue": "Y",
    "OutputPos": 49
  },
  {
    "field name": "ATTRIBUTE9",
    "column number": 54,
    "mandatory": "N",
    "maxlen": 150,
    "custom validation": "",
    "post processing": "",
    "formatter": "",
    "ORA_type": "VARCHAR2(150)",
    "Primary": "N",
    "isHidden": "N",
    "isLocked": "N",
    "constant": "",
    "LOV": "",
    "FK": "",
    "IsOutputValue": "Y",
    "OutputPos": 50
  },
  {
    "field name": "ATTRIBUTE10",
    "column number": 55,
    "mandatory": "N",
    "maxlen": 150,
    "custom validation": "",
    "post processing": "",
    "formatter": "",
    "ORA_type": "VARCHAR2(150)",
    "Primary": "N",
    "isHidden": "N",
    "isLocked": "N",
    "constant": "",
    "LOV": "",
    "FK": "",
    "IsOutputValue": "Y",
    "OutputPos": 51
  },
  {
    "field name": "ORG_NAME",
    "column number": 56,
    "mandatory": "Y",
    "maxlen": 240,
    "custom validation": "",
    "post processing": "",
    "formatter": "",
    "ORA_type": "VARCHAR2 (240)",
    "Primary": "N",
    "isHidden": "N",
    "isLocked": "N",
    "constant": "THYSSENKRUPP ELEVADORES S.A. (PANAMA)",
    "LOV": "",
    "FK": "",
    "IsOutputValue": "Y",
    "OutputPos": 52
  }
]